Студенты: 
 Имя: Марина
 Фамилия: Цветкова
 Отчество: Валентиновна
 День рождения: 12.05.2000 00:00:00
 Дата поступления: 14.09.2017 00:00:00
 Индекс группы: г
 Факультет: СГТ
 Специальность: 92
 Успеваемость: 80
 

 Имя: Оля
 Фамилия: Васильева
 Отчество: Сергеевна
 День рождения: 20.02.1999 00:00:00
 Дата поступления: 25.08.2016 00:00:00
 Индекс группы: б
 Факультет: КИТ
 Специальность: 123
 Успеваемость: 85
 

 Имя: Алексей
 Фамилия: Дороничев
 Отчество: Петрович
 День рождения: 21.01.2002 00:00:00
 Дата поступления: 23.08.2019 00:00:00
 Индекс группы: а
 Факультет: КИТ
 Специальность: 121
 Успеваемость: 95
 

